1st/exp1/exp1.sim/sim_1/behav/xsim/dump.vcd
$date
   Fri Jul 18 14:05:46 2025
$end

$version
  2024.1
  $dumpfile ("dump.vcd") 
$end

$timescale
  1ps
$end

$scope module testbench $end
$var reg 1 ! clk $end
$var reg 1 " resetn $end
$scope module u_scroller $end
$var wire 1 # clk $end
$var wire 1 $ resetn $end
$var reg 16 % led [15:0] $end
$var reg 27 & cnt [26:0] $end
$var wire 1 ' cnt_eq_0_5s $end
$upscope $end
$upscope $end
$enddefinitions $end

#0
$dumpvars
0!
0"
0#
0$
bx %
bx &
x'
$end

#5000
1!
1#
b1111111111111100 %
b0 &
0'

#10000
0!
0#

#15000
1!
1#

#20000
0!
0#

#25000
1!
1#

#30000
0!
0#

#35000
1!
1#

#40000
0!
0#

#45000
1!
1#

#50000
0!
0#

#55000
1!
1#

#60000
0!
0#

#65000
1!
1#

#70000
0!
0#

#75000
1!
1#

#80000
0!
0#

#85000
1!
1#

#90000
0!
0#

#95000
1!
1#

#100000
0!
0#

#105000
1!
1#

#110000
0!
0#

#115000
1!
1#

#120000
0!
0#

#125000
1!
1#

#130000
0!
0#

#135000
1!
1#

#140000
0!
0#

#145000
1!
1#

#150000
0!
0#

#155000
1!
1#

#160000
0!
0#

#165000
1!
1#

#170000
0!
0#

#175000
1!
1#

#180000
0!
0#

#185000
1!
1#

#190000
0!
0#

#195000
1!
1#

#200000
0!
1"
0#
1$

#205000
1!
1#
b1 &

#210000
0!
0#

#215000
1!
1#
b10 &

#220000
0!
0#

#225000
1!
1#
b11 &

#230000
0!
0#

#235000
1!
1#
b100 &

#240000
0!
0#

#245000
1!
1#
b101 &

#250000
0!
0#

#255000
1!
1#
b110 &

#260000
0!
0#

#265000
1!
1#
b111 &

#270000
0!
0#

#275000
1!
1#
b1000 &

#280000
0!
0#

#285000
1!
1#
b1001 &

#290000
0!
0#

#295000
1!
1#
b1010 &

#300000
0!
0#

#305000
1!
1#
b1011 &

#310000
0!
0#

#315000
1!
1#
b1100 &

#320000
0!
0#

#325000
1!
1#
b1101 &

#330000
0!
0#

#335000
1!
1#
b1110 &

#340000
0!
0#

#345000
1!
1#
b1111 &

#350000
0!
0#

#355000
1!
1#
b10000 &

#360000
0!
0#

#365000
1!
1#
b10001 &

#370000
0!
0#

#375000
1!
1#
b10010 &

#380000
0!
0#

#385000
1!
1#
b10011 &

#390000
0!
0#

#395000
1!
1#
b10100 &

#400000
0!
0#

#405000
1!
1#
b10101 &

#410000
0!
0#

#415000
1!
1#
b10110 &

#420000
0!
0#

#425000
1!
1#
b10111 &

#430000
0!
0#

#435000
1!
1#
b11000 &

#440000
0!
0#

#445000
1!
1#
b11001 &

#450000
0!
0#

#455000
1!
1#
b11010 &

#460000
0!
0#

#465000
1!
1#
b11011 &

#470000
0!
0#

#475000
1!
1#
b11100 &

#480000
0!
0#

#485000
1!
1#
b11101 &

#490000
0!
0#

#495000
1!
1#
b11110 &

#500000
0!
0#

#505000
1!
1#
b11111 &

#510000
0!
0#

#515000
1!
1#
b100000 &

#520000
0!
0#

#525000
1!
1#
b100001 &

#530000
0!
0#

#535000
1!
1#
b100010 &

#540000
0!
0#

#545000
1!
1#
b100011 &

#550000
0!
0#

#555000
1!
1#
b100100 &

#560000
0!
0#

#565000
1!
1#
b100101 &

#570000
0!
0#

#575000
1!
1#
b100110 &

#580000
0!
0#

#585000
1!
1#
b100111 &

#590000
0!
0#

#595000
1!
1#
b101000 &

#600000
0!
0#

#605000
1!
1#
b101001 &

#610000
0!
0#

#615000
1!
1#
b101010 &

#620000
0!
0#

#625000
1!
1#
b101011 &

#630000
0!
0#

#635000
1!
1#
b101100 &

#640000
0!
0#

#645000
1!
1#
b101101 &

#650000
0!
0#

#655000
1!
1#
b101110 &

#660000
0!
0#

#665000
1!
1#
b101111 &

#670000
0!
0#

#675000
1!
1#
b110000 &

#680000
0!
0#

#685000
1!
1#
b110001 &

#690000
0!
0#

#695000
1!
1#
b110010 &

#700000
0!
0#

#705000
1!
1#
b110011 &

#710000
0!
0#

#715000
1!
1#
b110100 &

#720000
0!
0#

#725000
1!
1#
b110101 &

#730000
0!
0#

#735000
1!
1#
b110110 &

#740000
0!
0#

#745000
1!
1#
b110111 &

#750000
0!
0#

#755000
1!
1#
b111000 &

#760000
0!
0#

#765000
1!
1#
b111001 &

#770000
0!
0#

#775000
1!
1#
b111010 &

#780000
0!
0#

#785000
1!
1#
b111011 &

#790000
0!
0#

#795000
1!
1#
b111100 &

#800000
0!
0#

#805000
1!
1#
b111101 &

#810000
0!
0#

#815000
1!
1#
b111110 &

#820000
0!
0#

#825000
1!
1#
b111111 &

#830000
0!
0#

#835000
1!
1#
b1000000 &

#840000
0!
0#

#845000
1!
1#
b1000001 &

#850000
0!
0#

#855000
1!
1#
b1000010 &

#860000
0!
0#

#865000
1!
1#
b1000011 &

#870000
0!
0#

#875000
1!
1#
b1000100 &

#880000
0!
0#

#885000
1!
1#
b1000101 &

#890000
0!
0#

#895000
1!
1#
b1000110 &

#900000
0!
0#

#905000
1!
1#
b1000111 &

#910000
0!
0#

#915000
1!
1#
b1001000 &

#920000
0!
0#

#925000
1!
1#
b1001001 &

#930000
0!
0#

#935000
1!
1#
b1001010 &

#940000
0!
0#

#945000
1!
1#
b1001011 &

#950000
0!
0#

#955000
1!
1#
b1001100 &

#960000
0!
0#

#965000
1!
1#
b1001101 &

#970000
0!
0#

#975000
1!
1#
b1001110 &

#980000
0!
0#

#985000
1!
1#
b1001111 &

#990000
0!
0#

#995000
1!
1#
b1010000 &

